time [s]|PWM_TU|Z [m]
  49.910	01	0.125

  51.819	02	0.125

  52.560	03	0.126

  52.921	04	0.122

  53.281	05	0.122

  53.658	06	0.122

  54.112	07	0.125

  54.497	08	0.124

  55.042	09	0.126

  55.370	10	0.128

  55.849	11	0.125

  56.251	12	0.125

  56.689	13	0.131

  57.069	14	0.125

  57.434	15	0.126

  57.816	16	0.125

  58.163	17	0.128

  58.639	18	0.131

  58.986	19	0.129

  59.453	20	0.124

  59.781	21	0.129

  60.211	22	0.130

  60.567	23	0.132

  60.981	24	0.130

  61.379	25	0.131

  61.706	26	0.127

  62.087	27	0.133

  62.472	28	0.128

  62.894	29	0.131

  63.291	30	0.132

  63.640	31	0.131

  64.057	32	0.127

  64.438	33	0.133

  64.807	34	0.133

  65.163	35	0.131

  65.511	36	0.132

  65.876	37	0.132

  66.277	38	0.136

  66.662	39	0.136

  67.047	40	0.137

  67.497	41	0.136

  67.821	42	0.134

  68.177	43	0.135

  68.559	44	0.135

  68.873	45	0.139

  69.209	46	0.136

  69.587	47	0.137

  69.935	48	0.137

  70.315	49	0.139

  70.696	50	0.137

  71.077	51	0.141

  71.417	52	0.142

  71.769	53	0.140

  72.130	54	0.142

  72.564	55	0.142

  72.945	56	0.140

  73.367	57	0.144

  73.809	58	0.145

  74.223	59	0.143

  74.579	60	0.145

  74.980	61	0.144

  75.406	62	0.146

  75.808	63	0.146

  76.201	64	0.144

  76.594	65	0.148

  77.003	66	0.146

  77.602	67	0.146

  77.954	68	0.147

  78.392	69	0.147

  79.350	68	0.153

  79.641	67	0.154

  79.817	66	0.155

  79.997	65	0.154

  80.194	64	0.151

  80.375	63	0.151

  80.575	62	0.151

  80.944	61	0.151

  81.415	60	0.153

  81.661	59	0.149

  81.857	58	0.152

  82.090	57	0.149

  82.328	56	0.147

  82.553	55	0.155

  82.782	54	0.149

  83.024	53	0.146

  83.266	52	0.146

  83.495	51	0.145

  83.708	50	0.146

  83.913	49	0.142

  84.126	48	0.145

  84.323	47	0.140

  84.515	46	0.142

  84.704	45	0.142

  84.896	44	0.141

  85.097	43	0.144

  85.297	42	0.142

  85.503	41	0.141

  85.715	40	0.145

  85.900	39	0.154

  86.080	38	0.162

  86.277	37	0.164

  86.473	36	0.154

  86.661	35	0.141

  86.866	34	0.136

  87.063	33	0.139

  87.259	32	0.134

  87.460	31	0.138

  87.661	30	0.133

  87.841	29	0.135

  88.341	28	0.131

  88.402	27	0.134

  88.463	26	0.136

  88.521	25	0.135

  88.582	24	0.133

  88.644	23	0.134

  88.705	22	0.131

  88.767	21	0.131

  88.828	20	0.133

  88.889	19	0.131

  88.951	18	0.131

  89.008	17	0.131

  89.070	16	0.131

  89.131	15	0.132

  89.193	14	0.130

  89.254	13	0.132

  89.311	12	0.130

  89.376	11	0.127

# Flight duration: 103.1 s
