Package                    Version
-------------------------- ---------
absl-py                    1.4.0
ale-py                     0.7.4
anyio                      3.5.0
appdirs                    1.4.4
argon2-cffi                21.3.0
argon2-cffi-bindings       21.2.0
asttokens                  2.0.5
attrs                      22.1.0
AutoROM                    0.6.1
AutoROM.accept-rom-license 0.6.1
Babel                      2.11.0
backcall                   0.2.0
beautifulsoup4             4.12.2
bleach                     4.1.0
Box2D                      2.3.10
brotlipy                   0.7.0
cachetools                 5.3.0
certifi                    2022.12.7
cffi                       1.15.1
charset-normalizer         2.0.4
click                      8.1.3
cloudpickle                2.2.1
comm                       0.1.2
contourpy                  1.0.5
cryptography               39.0.1
cycler                     0.11.0
debugpy                    1.5.1
decorator                  5.1.1
defusedxml                 0.7.1
entrypoints                0.4
executing                  0.8.3
fastjsonschema             2.16.2
fonttools                  4.25.0
future                     0.18.3
google-auth                2.17.3
google-auth-oauthlib       1.0.0
grpcio                     1.54.0
gym                        0.21.0
idna                       3.4
importlib-metadata         4.13.0
importlib-resources        5.2.0
ipykernel                  6.19.2
ipython                    8.12.0
ipython-genutils           0.2.0
ipywidgets                 8.0.4
jedi                       0.18.1
Jinja2                     3.1.2
json5                      0.9.6
jsonschema                 4.17.3
jupyter                    1.0.0
jupyter_client             8.1.0
jupyter-console            6.6.3
jupyter_core               5.3.0
jupyter-server             1.23.4
jupyterlab                 3.5.3
jupyterlab-pygments        0.1.2
jupyterlab_server          2.22.0
jupyterlab-widgets         3.0.5
kiwisolver                 1.4.4
labelImg                   1.8.5
lxml                       4.9.2
Markdown                   3.4.3
markdown-it-py             2.2.0
MarkupSafe                 2.1.1
matplotlib                 3.7.1
matplotlib-inline          0.1.6
mdurl                      0.1.2
mistune                    0.8.4
mkl-fft                    1.3.1
mkl-random                 1.2.2
mkl-service                2.4.0
munkres                    1.1.4
nbclassic                  0.5.5
nbclient                   0.5.13
nbconvert                  6.5.4
nbformat                   5.7.0
nest-asyncio               1.5.6
notebook                   6.5.4
notebook_shim              0.2.2
numpy                      1.23.5
oauthlib                   3.2.2
opencv-python              4.3.0.36
packaging                  23.0
pandas                     2.0.0
pandocfilters              1.5.0
parso                      0.8.3
pexpect                    4.8.0
pickleshare                0.7.5
Pillow                     9.4.0
pip                        23.0.1
pkgutil_resolve_name       1.3.10
platformdirs               2.5.2
ply                        3.11
pooch                      1.4.0
prometheus-client          0.14.1
prompt-toolkit             3.0.36
protobuf                   4.22.3
psutil                     5.9.0
ptyprocess                 0.7.0
pure-eval                  0.2.2
pyasn1                     0.5.0
pyasn1-modules             0.3.0
pybullet                   3.2.5
pycparser                  2.21
Pygments                   2.15.1
pyOpenSSL                  23.0.0
pyparsing                  3.0.9
PyQt5-sip                  12.11.0
pyqtgraph                  0.13.3
pyrsistent                 0.18.0
PySocks                    1.7.1
python-dateutil            2.8.2
pytz                       2022.7
PyYAML                     5.1
pyzmq                      23.2.0
QDarkStyle                 3.1
qtconsole                  5.4.2
QtPy                       2.2.0
requests                   2.28.1
requests-oauthlib          1.3.1
rich                       13.3.4
rsa                        4.9
scipy                      1.10.1
Send2Trash                 1.8.0
setuptools                 66.0.0
sip                        6.6.2
six                        1.16.0
sniffio                    1.2.0
soupsieve                  2.4
stable-baselines3          1.8.0
stack-data                 0.2.0
tensorboard                2.12.2
tensorboard-data-server    0.7.0
tensorboard-plugin-wit     1.8.1
terminado                  0.17.1
tinycss2                   1.2.1
toml                       0.10.2
tomli                      2.0.1
torch                      1.12.1
tornado                    6.2
tqdm                       4.65.0
traitlets                  5.7.1
typing_extensions          4.5.0
tzdata                     2023.3
urllib3                    1.26.15
wcwidth                    0.2.5
webencodings               0.5.1
websocket-client           0.58.0
Werkzeug                   2.2.3
wheel                      0.38.4
widgetsnbextension         4.0.5
zipp                       3.11.0
