\relax 
\providecommand\zref@newlabel[2]{}
\providecommand\babel@aux[2]{}
\@nameuse{bbl@beforestart}
\catcode `:\active 
\catcode `;\active 
\catcode `!\active 
\catcode `?\active 
\providecommand \oddpage@label [2]{}
\babel@aux{french}{}
\@writefile{toc}{\contentsline {section}{\numberline {1}Simulateur simple du véhicule pour \texttt  {Open/AI gym}}{1}{}\protected@file@percent }
\@writefile{toc}{\contentsline {subsection}{\numberline {1.1}Modèle simplifié}{1}{}\protected@file@percent }
\newlabel{eq1}{{1}{1}}
\@writefile{toc}{\contentsline {subsection}{\numberline {1.2}Résolution numérique}{1}{}\protected@file@percent }
\newlabel{eq2}{{2}{1}}
\newlabel{LastPage}{{}{2}}
\xdef\lastpage@lastpage{2}
\gdef\lastpage@lastpageHy{}
\gdef \@abspage@last{2}
